{
	"info": {
		"_postman_id": "ed6bdc7d-53a4-41bc-a67c-45e5b82f8fb0",
		"name": "TravelPoint",
		"schema": "https://schema.getpostman.com/json/collection/v2.1.0/collection.json"
	},
	"item": [
		{
			"name": "Users",
			"item": [
				{
					"name": "Register a user",
					"item": [
						{
							"name": "User registration with valid data",
							"event": [
								{
									"listen": "prerequest",
									"script": {
										"id": "e29e342d-cd4a-4f8e-95c2-a7a1c68b4ef2",
										"exec": [
											"const uuid = Math.random().toString(36).substring(2, 15) +",
											"        Math.random().toString(36).substring(2, 15);",
											"        ",
											"",
											"const email = \"user_\" + uuid + \"@mydomain.com\";",
											"const firstname = \"fname_\" + uuid;",
											"const lastname = \"lname_\" + uuid;",
											"const username = \"user_\" + uuid;",
											"",
											"pm.globals.set(\"email\", email);",
											"pm.globals.set(\"username\", username);",
											"pm.globals.set(\"firstname\", firstname);",
											"pm.globals.set(\"lastname\", lastname);"
										],
										"type": "text/javascript"
									}
								},
								{
									"listen": "test",
									"script": {
										"id": "4640c7cc-3949-404e-85ed-69bb02b39775",
										"exec": [
											"pm.test(\"Status code is 200\", function () {",
											"    pm.response.to.have.status(200);",
											"});",
											"",
											"",
											""
										],
										"type": "text/javascript"
									}
								}
							],
							"request": {
								"auth": {
									"type": "noauth"
								},
								"method": "POST",
								"header": [
									{
										"key": "Content-Type",
										"name": "Content-Type",
										"type": "text",
										"value": "application/json"
									}
								],
								"body": {
									"mode": "raw",
									"raw": "{\r\n  \"email\": \"{{email}}\",\r\n  \"enabled\": true,\r\n  \"firstName\": \"{{firstname}}\",\r\n  \"lastName\": \"{{lastname}}\",\r\n  \"nameVisibility\": true,\r\n  \"password\": \"123\",\r\n  \"passwordConfirmation\": \"123\",\r\n  \"username\": \"{{username}}\"\r\n}",
									"options": {
										"raw": {
											"language": "json"
										}
									}
								},
								"url": {
									"raw": "{{baseUrl}}{{users}}",
									"host": [
										"{{baseUrl}}{{users}}"
									]
								},
								"description": "POST request for creating new user with valid data"
							},
							"response": []
						},
						{
							"name": "Confirm user is created",
							"event": [
								{
									"listen": "test",
									"script": {
										"id": "a08a406a-3124-4c95-8b72-39152bf28a6a",
										"exec": [
											"let jsonData = pm.response.json();\r",
											"\r",
											"pm.test(\"Status code is 200\", function () {\r",
											"    pm.response.to.have.status(200);\r",
											"});\r",
											"\r",
											"pm.test(\"User with username \" + pm.globals.get(\"username\") + \" successfully created\" , function () {\r",
											"   pm.expect(jsonData[0].username).to.eql(pm.globals.get(\"username\"));\r",
											"});\r",
											"\r",
											""
										],
										"type": "text/javascript"
									}
								},
								{
									"listen": "prerequest",
									"script": {
										"id": "d068bb23-c175-4831-8858-bdf578c67fa6",
										"exec": [
											""
										],
										"type": "text/javascript"
									}
								}
							],
							"request": {
								"auth": {
									"type": "noauth"
								},
								"method": "GET",
								"header": [],
								"url": {
									"raw": "{{baseUrl}}{{users}}",
									"host": [
										"{{baseUrl}}{{users}}"
									]
								},
								"description": "GET request to will call all user from database in order to confirm that the new user is created successfully"
							},
							"response": []
						}
					],
					"event": [
						{
							"listen": "prerequest",
							"script": {
								"id": "fe8f66ad-0193-4dcf-b5b0-df50c82a3cee",
								"type": "text/javascript",
								"exec": [
									""
								]
							}
						},
						{
							"listen": "test",
							"script": {
								"id": "eb9c21b0-5590-4b03-8e52-edc4f376c8cd",
								"type": "text/javascript",
								"exec": [
									""
								]
							}
						}
					],
					"protocolProfileBehavior": {},
					"_postman_isSubFolder": true
				},
				{
					"name": "Edit user",
					"item": [
						{
							"name": "Get list of users and set user id",
							"event": [
								{
									"listen": "test",
									"script": {
										"id": "6b9fea28-7422-486f-9c23-36cdd8f01662",
										"exec": [
											"let jsonData = pm.response.json();",
											"",
											"pm.test(\"Status code is 200\", function () {",
											"    pm.response.to.have.status(200);",
											"});",
											"",
											"pm.globals.set(\"userID\", jsonData[0].id);",
											"pm.globals.set(\"email\", jsonData[0].email);",
											"pm.globals.set(\"username\", jsonData[0].username);"
										],
										"type": "text/javascript"
									}
								}
							],
							"request": {
								"method": "GET",
								"header": [],
								"url": {
									"raw": "{{baseUrl}}{{users}}",
									"host": [
										"{{baseUrl}}{{users}}"
									]
								},
								"description": "GET all user from database in order to set User ID that will be used in the following PUT for updating user information"
							},
							"response": []
						},
						{
							"name": "Edit user information",
							"event": [
								{
									"listen": "test",
									"script": {
										"id": "403f388e-1343-4035-98b9-966d580f9d1e",
										"exec": [
											"pm.test(\"Status code is 200\", function () {\r",
											"    pm.response.to.have.status(200);\r",
											"});"
										],
										"type": "text/javascript"
									}
								},
								{
									"listen": "prerequest",
									"script": {
										"id": "120952b2-95fc-4b0b-bac8-e22a1729547e",
										"exec": [
											"pm.globals.get(\"userID\");"
										],
										"type": "text/javascript"
									}
								}
							],
							"request": {
								"method": "PUT",
								"header": [
									{
										"key": "Content-Type",
										"name": "Content-Type",
										"value": "application/json",
										"type": "text"
									}
								],
								"body": {
									"mode": "raw",
									"raw": "{\r\n  \"email\": \"{{email}}\",\r\n  \"enabled\": true,\r\n  \"firstName\": \"firstName_updated\",\r\n  \"lastName\": \"lastName_updated\",\r\n  \"nameVisibility\": true,\r\n  \"password\": \"123\",\r\n  \"passwordConfirmation\": \"123\",\r\n  \"username\": \"{{username}}\"\r\n}",
									"options": {
										"raw": {
											"language": "json"
										}
									}
								},
								"url": {
									"raw": "{{baseUrl}}{{users}}/{{userID}}",
									"host": [
										"{{baseUrl}}{{users}}"
									],
									"path": [
										"{{userID}}"
									]
								},
								"description": "PUT request to update user information"
							},
							"response": []
						},
						{
							"name": "Confirm user is updated",
							"event": [
								{
									"listen": "test",
									"script": {
										"id": "9a3d60c3-49c7-489d-a2a9-845458f7179b",
										"exec": [
											"let jsonData = pm.response.json();\r",
											"\r",
											"pm.test(\"Status code is 200\", function () {\r",
											"    pm.response.to.have.status(200);\r",
											"});\r",
											"\r",
											"pm.test(\"First name for user with ID \" + pm.globals.get(\"userID\") + \" successfully changed to firstName_updated\" , function () {\r",
											"   pm.expect(jsonData.firstName).to.eql(\"firstName_updated\");\r",
											"});\r",
											"\r",
											"pm.test(\"Last name for user with ID \" + pm.globals.get(\"userID\") + \" successfully changed to lastName_updated\" , function () {\r",
											"   pm.expect(jsonData.lastName).to.eql(\"lastName_updated\");\r",
											"});\r",
											""
										],
										"type": "text/javascript"
									}
								},
								{
									"listen": "prerequest",
									"script": {
										"id": "ca1cb8d2-8fa9-4053-8aa6-6a4dfe237511",
										"exec": [
											""
										],
										"type": "text/javascript"
									}
								}
							],
							"request": {
								"method": "GET",
								"header": [],
								"url": {
									"raw": "{{baseUrl}}{{users}}/{{userID}}",
									"host": [
										"{{baseUrl}}{{users}}"
									],
									"path": [
										"{{userID}}"
									]
								},
								"description": "GET all users from database in order to confirm that the user from the previous request is updated successfully"
							},
							"response": []
						}
					],
					"event": [
						{
							"listen": "prerequest",
							"script": {
								"id": "fdd182c6-dbc8-4638-98e9-233d4e1b797d",
								"type": "text/javascript",
								"exec": [
									"pm.globals.get(\"email\");",
									"pm.globals.get(\"username\");",
									"pm.globals.get(\"firstname\");",
									"pm.globals.get(\"lastname\");"
								]
							}
						},
						{
							"listen": "test",
							"script": {
								"id": "bb825f55-8cf9-4cb0-9a9b-04ad66d52711",
								"type": "text/javascript",
								"exec": [
									""
								]
							}
						}
					],
					"protocolProfileBehavior": {},
					"_postman_isSubFolder": true
				},
				{
					"name": "Delete user",
					"item": [
						{
							"name": "Get list of users and set user id",
							"event": [
								{
									"listen": "test",
									"script": {
										"id": "6b9fea28-7422-486f-9c23-36cdd8f01662",
										"exec": [
											"let jsonData = pm.response.json();",
											"",
											"pm.test(\"Status code is 200\", function () {",
											"    pm.response.to.have.status(200);",
											"});",
											"",
											"pm.globals.set(\"userID\", jsonData[0].id);"
										],
										"type": "text/javascript"
									}
								}
							],
							"request": {
								"method": "GET",
								"header": [],
								"url": {
									"raw": "{{baseUrl}}{{users}}",
									"host": [
										"{{baseUrl}}{{users}}"
									]
								},
								"description": "GET all users from database and set user ID that will be used in the following request"
							},
							"response": []
						},
						{
							"name": "Delete user by user id",
							"event": [
								{
									"listen": "test",
									"script": {
										"id": "ec7fb602-aca0-4929-84a0-8e2e9944173e",
										"exec": [
											"pm.test(\"Status code is 200\", function () {",
											"    pm.response.to.have.status(200);",
											"});"
										],
										"type": "text/javascript"
									}
								},
								{
									"listen": "prerequest",
									"script": {
										"id": "61f3debb-b210-4942-83da-e85920e03887",
										"exec": [
											""
										],
										"type": "text/javascript"
									}
								}
							],
							"request": {
								"method": "DELETE",
								"header": [],
								"url": {
									"raw": "{{baseUrl}}{{users}}/{{userID}}",
									"host": [
										"{{baseUrl}}{{users}}"
									],
									"path": [
										"{{userID}}"
									]
								},
								"description": "DELETE request for deleting user account"
							},
							"response": []
						},
						{
							"name": "Confirm user is deleted",
							"event": [
								{
									"listen": "test",
									"script": {
										"id": "98ee3217-104b-490b-b079-ca3ef62ff483",
										"exec": [
											"pm.test(\"Status code is 404 - The resource you were trying to reach is not found\", function () {",
											"    pm.response.to.have.status(404);",
											"});",
											""
										],
										"type": "text/javascript"
									}
								},
								{
									"listen": "prerequest",
									"script": {
										"id": "48498566-aff7-40af-8b83-d98b6eb5ac5e",
										"exec": [
											""
										],
										"type": "text/javascript"
									}
								}
							],
							"request": {
								"method": "GET",
								"header": [],
								"url": {
									"raw": "{{baseUrl}}{{users}}/{{userID}}",
									"host": [
										"{{baseUrl}}{{users}}"
									],
									"path": [
										"{{userID}}"
									]
								},
								"description": "GET all users from database in order to confirm that the user from the previous request is deleted successfully"
							},
							"response": []
						}
					],
					"event": [
						{
							"listen": "prerequest",
							"script": {
								"id": "fe4196df-3329-458b-a450-de8498855a25",
								"type": "text/javascript",
								"exec": [
									""
								]
							}
						},
						{
							"listen": "test",
							"script": {
								"id": "179c878f-6d24-4a44-804a-8599e3b9927d",
								"type": "text/javascript",
								"exec": [
									""
								]
							}
						}
					],
					"protocolProfileBehavior": {},
					"_postman_isSubFolder": true
				}
			],
			"event": [
				{
					"listen": "prerequest",
					"script": {
						"id": "b910fbf5-8004-4a7e-be55-a17a1e6caad4",
						"type": "text/javascript",
						"exec": [
							""
						]
					}
				},
				{
					"listen": "test",
					"script": {
						"id": "cc392b8e-fc72-4027-a438-d1862e76594d",
						"type": "text/javascript",
						"exec": [
							""
						]
					}
				}
			],
			"protocolProfileBehavior": {}
		},
		{
			"name": "Post",
			"item": [
				{
					"name": "Create post",
					"item": [
						{
							"name": "Get list of users and set user id",
							"event": [
								{
									"listen": "test",
									"script": {
										"id": "a08a406a-3124-4c95-8b72-39152bf28a6a",
										"exec": [
											"let jsonData = pm.response.json();",
											"",
											"pm.test(\"Status code is 200\", function () {",
											"    pm.response.to.have.status(200);",
											"});",
											"",
											"pm.globals.set(\"userID\", jsonData[0].id);",
											"",
											"console.log(pm.globals.get(\"userID\"));"
										],
										"type": "text/javascript"
									}
								},
								{
									"listen": "prerequest",
									"script": {
										"id": "d068bb23-c175-4831-8858-bdf578c67fa6",
										"exec": [
											""
										],
										"type": "text/javascript"
									}
								}
							],
							"request": {
								"auth": {
									"type": "noauth"
								},
								"method": "GET",
								"header": [],
								"url": {
									"raw": "{{mock1Url}}/{{users}}",
									"host": [
										"{{mock1Url}}"
									],
									"path": [
										"{{users}}"
									]
								},
								"description": "GET all users from database and set user ID that will be used for the following request"
							},
							"response": [
								{
									"name": "Status 200 OK",
									"originalRequest": {
										"method": "GET",
										"header": [],
										"url": {
											"raw": "{{mock1Url}}/{{users}}",
											"host": [
												"{{mock1Url}}"
											],
											"path": [
												"{{users}}"
											]
										}
									},
									"status": "OK",
									"code": 200,
									"_postman_previewlanguage": "json",
									"header": null,
									"cookie": [],
									"body": "[\r\n    {\r\n        \"id\": 1,\r\n        \"username\": \"user1\",\r\n        \"password\": \"$2a$10$KLpnxkjoDd37z3b4Q2L4oe3m8BDkMo1nZgKGZDlqHOg/ns4LW2PFW\",\r\n        \"email\": \"user1@mydomain.com\",\r\n        \"firstName\": \"user1\",\r\n        \"lastName\": \"user1\",\r\n        \"nameVisibility\": true,\r\n        \"enabled\": true\r\n    }\r\n]"
								}
							]
						},
						{
							"name": "Create Post with valid data",
							"event": [
								{
									"listen": "prerequest",
									"script": {
										"id": "556dc5b9-cd4e-4504-9ed0-0f5ce245bef4",
										"exec": [
											""
										],
										"type": "text/javascript"
									}
								},
								{
									"listen": "test",
									"script": {
										"id": "e52d0b2a-1151-488e-aef1-e3e985cb92f4",
										"exec": [
											"pm.test(\"Status code is 200\", function () {",
											"    pm.response.to.have.status(200);",
											"});"
										],
										"type": "text/javascript"
									}
								}
							],
							"request": {
								"method": "POST",
								"header": [
									{
										"key": "Content-Type",
										"name": "Content-Type",
										"value": "application/json",
										"type": "text"
									}
								],
								"body": {
									"mode": "raw",
									"raw": "{\n  \"content\": \"API POST REQUEST TO TEST NEW POST CREATION IN TRAVEL POINT SOCIAL NETWORK\",\n  \"enabled\": true,\n  \"created_date\": \"2019-11-14 12:27:58\",\n  \"id\": 3,\n  \"user\": {\n    \"id\": \"{{userID}}\"\n  },\n  \"visible\": true\n}",
									"options": {
										"raw": {
											"language": "json"
										}
									}
								},
								"url": {
									"raw": "{{mock1Url}}/{{posts}}",
									"host": [
										"{{mock1Url}}"
									],
									"path": [
										"{{posts}}"
									]
								},
								"description": "POST request for publishing new post"
							},
							"response": [
								{
									"name": "Status 200 OK",
									"originalRequest": {
										"method": "POST",
										"header": [
											{
												"key": "Content-Type",
												"name": "Content-Type",
												"value": "application/json",
												"type": "text"
											}
										],
										"body": {
											"mode": "raw",
											"raw": "{\n  \"content\": \"API POST REQUEST TO TEST NEW POST CREATION IN TRAVEL POINT SOCIAL NETWORK\",\n  \"enabled\": true,\n  \"created_date\": \"2019-11-14 12:27:58\",\n  \"id\": 3,\n  \"user\": {\n    \"id\": \"1\"\n  },\n  \"visible\": true\n}",
											"options": {
												"raw": {
													"language": "json"
												}
											}
										},
										"url": {
											"raw": "{{mock1Url}}/{{posts}}",
											"host": [
												"{{mock1Url}}"
											],
											"path": [
												"{{posts}}"
											]
										}
									},
									"status": "OK",
									"code": 200,
									"_postman_previewlanguage": "json",
									"header": null,
									"cookie": [],
									"body": "{\n  \"content\": \"API POST REQUEST TO TEST NEW POST CREATION IN TRAVEL POINT SOCIAL NETWORK\",\n  \"enabled\": true,\n  \"created_date\": \"2019-11-14 12:27:58\",\n  \"id\": 3,\n  \"user\": {\n    \"id\": \"1\"\n  },\n  \"visible\": true\n}"
								}
							]
						},
						{
							"name": "Confirm post is created",
							"event": [
								{
									"listen": "test",
									"script": {
										"id": "9ca9303b-4241-4cd5-a87e-a8146a5c27c0",
										"exec": [
											"let jsonData = pm.response.json();",
											"",
											"console.log(jsonData);",
											"",
											"pm.test(\"Status code is 200\", function () {",
											"    pm.response.to.have.status(200);",
											"});",
											"",
											"pm.test(\"Correct post ID is received\", function () {",
											"    pm.expect(jsonData[0].id).to.eql(3);",
											"});",
											"",
											"pm.test(\"New post text is present\", function () {",
											"    pm.expect(jsonData[0].content).to.eql(\"API POST REQUEST TO TEST NEW POST CREATION IN TRAVEL POINT SOCIAL NETWORK\");",
											"});",
											"",
											"",
											"pm.test(\"Correct user ID is received\", function () {",
											"    pm.expect(jsonData[0].user.id).to.eql(pm.globals.get(\"userID\"));",
											"});",
											"",
											"",
											"",
											""
										],
										"type": "text/javascript"
									}
								}
							],
							"request": {
								"method": "GET",
								"header": [],
								"url": {
									"raw": "{{mock1Url}}/{{posts}}",
									"host": [
										"{{mock1Url}}"
									],
									"path": [
										"{{posts}}"
									]
								},
								"description": "GET all post from database and confirm that a new post is created from the previous request"
							},
							"response": [
								{
									"name": "Status 200 OK",
									"originalRequest": {
										"method": "GET",
										"header": [],
										"url": {
											"raw": "{{mock1Url}}/{{posts}}",
											"host": [
												"{{mock1Url}}"
											],
											"path": [
												"{{posts}}"
											]
										}
									},
									"status": "OK",
									"code": 200,
									"_postman_previewlanguage": "json",
									"header": [
										{
											"key": "Access-Control-Allow-Origin",
											"value": "*"
										},
										{
											"key": "Content-Encoding",
											"value": "gzip"
										},
										{
											"key": "Content-Type",
											"value": "text/html; charset=utf-8"
										},
										{
											"key": "Date",
											"value": "Thu, 28 Nov 2019 18:07:00 GMT"
										},
										{
											"key": "ETag",
											"value": "W/\"216-LoCVrClchwvCYxxOapoHxyWhVBo\""
										},
										{
											"key": "Server",
											"value": "nginx"
										},
										{
											"key": "Vary",
											"value": "Accept-Encoding"
										},
										{
											"key": "x-srv-span",
											"value": "v=1;s=d10f1d720c9524e8"
										},
										{
											"key": "x-srv-trace",
											"value": "v=1;t=d0cbbb99fa658cbe"
										},
										{
											"key": "Content-Length",
											"value": "199"
										},
										{
											"key": "Connection",
											"value": "keep-alive"
										}
									],
									"cookie": [],
									"body": "[\n\t{\n\t  \"content\": \"API POST REQUEST TO TEST NEW POST CREATION IN TRAVEL POINT SOCIAL NETWORK\",\n\t  \"enabled\": true,\n\t  \"created_date\": \"2019-11-14 12:27:58\",\n\t  \"id\": 3,\n\t  \"user\": {\n\t    \"id\": 1\n\t  },\n\t  \"visible\": true\n\t},\n    {\n        \"content\": \"OLD POST WITH ID 2\",\n        \"enabled\": true,\n        \"created_date\": \"2019-11-14 12:27:58\",\n        \"id\": 2,\n        \"user\": {\n            \"id\": 1\n        },\n        \"visible\": true\n    },\n    {\n        \"content\": \"OLD POST WITH ID 1\",\n        \"enabled\": true,\n        \"created_date\": \"2019-11-14 12:27:58\",\n        \"id\": 1,\n        \"user\": {\n            \"id\": 1\n        },\n        \"visible\": true\n    }\n]"
								}
							]
						}
					],
					"auth": {
						"type": "noauth"
					},
					"event": [
						{
							"listen": "prerequest",
							"script": {
								"id": "848ef34b-0d46-4c5b-828f-6748d853d6eb",
								"type": "text/javascript",
								"exec": [
									""
								]
							}
						},
						{
							"listen": "test",
							"script": {
								"id": "9233d40f-acd4-46b2-8dbc-8260c9a57e19",
								"type": "text/javascript",
								"exec": [
									""
								]
							}
						}
					],
					"protocolProfileBehavior": {},
					"_postman_isSubFolder": true
				},
				{
					"name": "Delete post",
					"item": [
						{
							"name": "Get list of posts and set a post id",
							"event": [
								{
									"listen": "test",
									"script": {
										"id": "9ca9303b-4241-4cd5-a87e-a8146a5c27c0",
										"exec": [
											"let jsonData = pm.response.json();",
											"",
											"pm.test(\"Status code is 200\", function () {",
											"    pm.response.to.have.status(200);",
											"});",
											"",
											"pm.globals.set(\"postID\", jsonData[0].id);",
											"console.log(pm.globals.get(\"postID\"));"
										],
										"type": "text/javascript"
									}
								}
							],
							"request": {
								"method": "GET",
								"header": [],
								"url": {
									"raw": "{{mock1Url}}/{{posts}}",
									"host": [
										"{{mock1Url}}"
									],
									"path": [
										"{{posts}}"
									]
								},
								"description": "GET all posts from database and set post ID that will be used in the following request"
							},
							"response": [
								{
									"name": "Status 200 OK",
									"originalRequest": {
										"method": "GET",
										"header": [],
										"url": {
											"raw": "{{mock1Url}}/{{posts}}",
											"host": [
												"{{mock1Url}}"
											],
											"path": [
												"{{posts}}"
											]
										}
									},
									"status": "OK",
									"code": 200,
									"_postman_previewlanguage": "json",
									"header": null,
									"cookie": [],
									"body": "[\n\t{\n\t  \"content\": \"API POST REQUEST TO TEST NEW POST CREATION IN TRAVEL POINT SOCIAL NETWORK\",\n\t  \"enabled\": true,\n\t  \"created_date\": \"2019-11-14 12:27:58\",\n\t  \"id\": 3,\n\t  \"user\": {\n\t    \"id\": 1\n\t  },\n\t  \"visible\": true\n\t},\n    {\n        \"content\": \"OLD POST WITH ID 2\",\n        \"enabled\": true,\n        \"created_date\": \"2019-11-14 12:27:58\",\n        \"id\": 2,\n        \"user\": {\n            \"id\": 1\n        },\n        \"visible\": true\n    },\n    {\n        \"content\": \"OLD POST WITH ID 1\",\n        \"enabled\": true,\n        \"created_date\": \"2019-11-14 12:27:58\",\n        \"id\": 1,\n        \"user\": {\n            \"id\": 1\n        },\n        \"visible\": true\n    }\n]"
								}
							]
						},
						{
							"name": "Delete post",
							"event": [
								{
									"listen": "test",
									"script": {
										"id": "f6e67f3d-0807-4088-9f4d-cc4ae88e4828",
										"exec": [
											"pm.test(\"Status code is 200\", function () {",
											"    pm.response.to.have.status(200);",
											"});"
										],
										"type": "text/javascript"
									}
								},
								{
									"listen": "prerequest",
									"script": {
										"id": "59ef3316-7e04-4c15-ab55-ba5981deb251",
										"exec": [
											""
										],
										"type": "text/javascript"
									}
								}
							],
							"request": {
								"method": "DELETE",
								"header": [
									{
										"key": "Content-Type",
										"name": "Content-Type",
										"value": "application/json",
										"type": "text"
									}
								],
								"body": {
									"mode": "raw",
									"raw": "",
									"options": {
										"raw": {
											"language": "json"
										}
									}
								},
								"url": {
									"raw": "{{mock1Url}}/{{posts}}/{{postID}}",
									"host": [
										"{{mock1Url}}"
									],
									"path": [
										"{{posts}}",
										"{{postID}}"
									]
								},
								"description": "DELETE request to remove post from database"
							},
							"response": [
								{
									"name": "Status 200 OK",
									"originalRequest": {
										"method": "DELETE",
										"header": [
											{
												"key": "Content-Type",
												"name": "Content-Type",
												"value": "application/json",
												"type": "text"
											}
										],
										"body": {
											"mode": "raw",
											"raw": "",
											"options": {
												"raw": {
													"language": "json"
												}
											}
										},
										"url": {
											"raw": "{{mock1Url}}/{{posts}}/{{postID}}",
											"host": [
												"{{mock1Url}}"
											],
											"path": [
												"{{posts}}",
												"{{postID}}"
											]
										}
									},
									"status": "OK",
									"code": 200,
									"_postman_previewlanguage": "json",
									"header": null,
									"cookie": [],
									"body": ""
								}
							]
						},
						{
							"name": "Confirm post is deleted",
							"event": [
								{
									"listen": "test",
									"script": {
										"id": "9ca9303b-4241-4cd5-a87e-a8146a5c27c0",
										"exec": [
											"let jsonData = pm.response.json();",
											"",
											"console.log(jsonData);",
											"",
											"pm.test(\"Status code is 200\", function () {",
											"    pm.response.to.have.status(200);",
											"});",
											"",
											"pm.test(\"Correct post ID is received\", function () {",
											"    pm.expect(jsonData[0].id).not.equal(pm.globals.get(\"postID\"));",
											"});",
											"",
											""
										],
										"type": "text/javascript"
									}
								}
							],
							"protocolProfileBehavior": {
								"followRedirects": true
							},
							"request": {
								"auth": {
									"type": "noauth"
								},
								"method": "GET",
								"header": [],
								"url": {
									"raw": "{{mock2Url}}/{{posts}}",
									"host": [
										"{{mock2Url}}"
									],
									"path": [
										"{{posts}}"
									]
								},
								"description": "GET all post from database in order to confimr that the post from previous request is deleted successfully"
							},
							"response": [
								{
									"name": "Status 200 OK",
									"originalRequest": {
										"method": "GET",
										"header": [],
										"url": {
											"raw": "{{mock2Url}}/{{posts}}",
											"host": [
												"{{mock2Url}}"
											],
											"path": [
												"{{posts}}"
											]
										}
									},
									"status": "OK",
									"code": 200,
									"_postman_previewlanguage": "json",
									"header": [
										{
											"key": "Access-Control-Allow-Origin",
											"value": "*"
										},
										{
											"key": "Content-Encoding",
											"value": "gzip"
										},
										{
											"key": "Content-Type",
											"value": "text/html; charset=utf-8"
										},
										{
											"key": "Date",
											"value": "Thu, 28 Nov 2019 18:29:36 GMT"
										},
										{
											"key": "ETag",
											"value": "W/\"17c-cjXmBmHS6QJThbyBaDofg9pifl0\""
										},
										{
											"key": "Server",
											"value": "nginx"
										},
										{
											"key": "Vary",
											"value": "Accept-Encoding"
										},
										{
											"key": "x-srv-span",
											"value": "v=1;s=e8b5a9e5db0376b5"
										},
										{
											"key": "x-srv-trace",
											"value": "v=1;t=45e7ee2d7e71d32e"
										},
										{
											"key": "Content-Length",
											"value": "165"
										},
										{
											"key": "Connection",
											"value": "keep-alive"
										}
									],
									"cookie": [],
									"body": "[\n    {\n        \"content\": \"OLD POST WITH ID 2\",\n        \"enabled\": true,\n        \"created_date\": \"2019-11-14 12:27:58\",\n        \"id\": 2,\n        \"user\": {\n            \"id\": 1\n        },\n        \"visible\": true\n    },\n    {\n        \"content\": \"OLD POST WITH ID 1\",\n        \"enabled\": true,\n        \"created_date\": \"2019-11-14 12:27:58\",\n        \"id\": 1,\n        \"user\": {\n            \"id\": 1\n        },\n        \"visible\": true\n    }\n]"
								}
							]
						}
					],
					"auth": {
						"type": "noauth"
					},
					"event": [
						{
							"listen": "prerequest",
							"script": {
								"id": "0c1d7118-a990-46c0-bba4-14880150b3f8",
								"type": "text/javascript",
								"exec": [
									""
								]
							}
						},
						{
							"listen": "test",
							"script": {
								"id": "63af4563-80ca-4419-82f7-50a113c5e1e1",
								"type": "text/javascript",
								"exec": [
									""
								]
							}
						}
					],
					"protocolProfileBehavior": {},
					"_postman_isSubFolder": true
				}
			],
			"protocolProfileBehavior": {}
		},
		{
			"name": "Comment",
			"item": [
				{
					"name": "Create comment",
					"item": [
						{
							"name": "Get list of posts and set a post id",
							"event": [
								{
									"listen": "test",
									"script": {
										"id": "41466f17-88e0-4bd4-b8d6-abda8bdeecbe",
										"exec": [
											"let jsonData = pm.response.json();",
											"",
											"pm.test(\"Status code is 200\", function () {",
											"    pm.response.to.have.status(200);",
											"});",
											"",
											"pm.globals.set(\"postID\", jsonData[0].id);",
											"",
											"pm.globals.set(\"userID\", jsonData[0].user.id);"
										],
										"type": "text/javascript"
									}
								}
							],
							"request": {
								"auth": {
									"type": "basic",
									"basic": [
										{
											"key": "password",
											"value": "123",
											"type": "string"
										},
										{
											"key": "username",
											"value": "user1",
											"type": "string"
										}
									]
								},
								"method": "GET",
								"header": [],
								"url": {
									"raw": "{{baseUrl}}{{posts}}",
									"host": [
										"{{baseUrl}}{{posts}}"
									]
								},
								"description": "In order to create a comment, you need first to get a post's id."
							},
							"response": []
						},
						{
							"name": "Post comment with valid data",
							"event": [
								{
									"listen": "test",
									"script": {
										"id": "13293221-47f7-4f9a-88bb-40f00df4e44e",
										"exec": [
											"pm.test(\"Status code is 200\", function () {",
											"    pm.response.to.have.status(200);",
											"});"
										],
										"type": "text/javascript"
									}
								},
								{
									"listen": "prerequest",
									"script": {
										"id": "700444e2-e6ef-4b51-92dc-7661ef46fac7",
										"exec": [
											"const uuid = Math.random().toString(36).substring(2, 15) +",
											"        Math.random().toString(36).substring(2, 15);",
											"        ",
											"",
											"const content = \"REST API COMMENT_\" + uuid;",
											"",
											"pm.globals.set(\"commentContent\", content);"
										],
										"type": "text/javascript"
									}
								}
							],
							"request": {
								"auth": {
									"type": "basic",
									"basic": [
										{
											"key": "password",
											"value": "123",
											"type": "string"
										},
										{
											"key": "username",
											"value": "user1",
											"type": "string"
										}
									]
								},
								"method": "POST",
								"header": [
									{
										"key": "Content-Type",
										"name": "Content-Type",
										"value": "application/json",
										"type": "text"
									}
								],
								"body": {
									"mode": "raw",
									"raw": "{\r\n  \"content\": \"{{commentContent}}\",\r\n  \"enabled\": true,\r\n  \"post\": {\r\n    \"id\": \"{{postID}}\"\r\n  },\r\n  \"user\": {\r\n    \"id\": \"{{userID}}\"\r\n  }\r\n}"
								},
								"url": {
									"raw": "{{baseUrl}}{{comments}}",
									"host": [
										"{{baseUrl}}{{comments}}"
									]
								},
								"description": "POST request for creating new comment with valid data"
							},
							"response": []
						},
						{
							"name": "Confirm comment is created",
							"event": [
								{
									"listen": "test",
									"script": {
										"id": "8e773577-af53-40e6-89ba-5ccf787fd650",
										"exec": [
											"let jsonData = pm.response.json();",
											"",
											"pm.test(\"Status code is 200\", function () {",
											"    pm.response.to.have.status(200);",
											"});",
											"",
											"pm.test(\"Correct post ID is received\", function () {",
											"    pm.expect(jsonData[0].post.id).to.eql(pm.globals.get(\"postID\"));",
											"});",
											"",
											"pm.test(\"New comment text is present\", function () {",
											"    pm.expect(jsonData[0].content).to.eql(pm.globals.get(\"commentContent\"));",
											"});",
											"",
											"pm.globals.unset(\"commentContent\");",
											"pm.globals.unset(\"postID\");",
											"pm.globals.unset(\"userID\");"
										],
										"type": "text/javascript"
									}
								}
							],
							"request": {
								"auth": {
									"type": "basic",
									"basic": [
										{
											"key": "password",
											"value": "123",
											"type": "string"
										},
										{
											"key": "username",
											"value": "user1",
											"type": "string"
										}
									]
								},
								"method": "GET",
								"header": [
									{
										"key": "Content-Type",
										"name": "Content-Type",
										"value": "application/json",
										"type": "text"
									}
								],
								"url": {
									"raw": "{{baseUrl}}{{comments}}/post/{{postID}}",
									"host": [
										"{{baseUrl}}{{comments}}"
									],
									"path": [
										"post",
										"{{postID}}"
									]
								},
								"description": "Get request to confirm that the comment created from the previous request was successful"
							},
							"response": []
						}
					],
					"protocolProfileBehavior": {},
					"_postman_isSubFolder": true
				},
				{
					"name": "Delete comment",
					"item": [
						{
							"name": "Get list of posts and set a post id",
							"event": [
								{
									"listen": "test",
									"script": {
										"id": "41466f17-88e0-4bd4-b8d6-abda8bdeecbe",
										"exec": [
											"let jsonData = pm.response.json();",
											"",
											"pm.test(\"Status code is 200\", function () {",
											"    pm.response.to.have.status(200);",
											"});",
											"",
											"pm.globals.set(\"postID\", jsonData[0].id);",
											"",
											"console.log(pm.globals.get(\"postID\"));"
										],
										"type": "text/javascript"
									}
								}
							],
							"request": {
								"auth": {
									"type": "basic",
									"basic": [
										{
											"key": "password",
											"value": "123",
											"type": "string"
										},
										{
											"key": "username",
											"value": "user1",
											"type": "string"
										}
									]
								},
								"method": "GET",
								"header": [],
								"url": {
									"raw": "{{baseUrl}}{{posts}}",
									"host": [
										"{{baseUrl}}{{posts}}"
									]
								},
								"description": "In order to create a comment, you need first to get a post's id."
							},
							"response": []
						},
						{
							"name": "Get list of comments and set comment id",
							"event": [
								{
									"listen": "test",
									"script": {
										"id": "8e773577-af53-40e6-89ba-5ccf787fd650",
										"exec": [
											"let jsonData = pm.response.json();",
											"",
											"pm.test(\"Status code is 200\", function () {",
											"    pm.response.to.have.status(200);",
											"});",
											"",
											"pm.test(\"Correct post ID is received\", function () {",
											"    pm.expect(jsonData[0].post.id).to.eql(pm.globals.get(\"postID\"));",
											"});",
											"",
											"pm.globals.set(\"commentID\", jsonData[0].id);",
											"pm.globals.set(\"content\", jsonData[0].content);"
										],
										"type": "text/javascript"
									}
								}
							],
							"request": {
								"auth": {
									"type": "basic",
									"basic": [
										{
											"key": "password",
											"value": "123",
											"type": "string"
										},
										{
											"key": "username",
											"value": "user1",
											"type": "string"
										}
									]
								},
								"method": "GET",
								"header": [
									{
										"key": "Content-Type",
										"name": "Content-Type",
										"type": "text",
										"value": "application/json"
									}
								],
								"url": {
									"raw": "{{baseUrl}}{{comments}}/post/{{postID}}",
									"host": [
										"{{baseUrl}}{{comments}}"
									],
									"path": [
										"post",
										"{{postID}}"
									]
								},
								"description": "Get request used to set comment id needed for the following request"
							},
							"response": []
						},
						{
							"name": "Delete comment",
							"event": [
								{
									"listen": "test",
									"script": {
										"id": "d201d0a6-b894-447a-8a5a-c1f2f476ec52",
										"exec": [
											"pm.test(\"Status code is 200\", function () {",
											"    pm.response.to.have.status(200);",
											"});"
										],
										"type": "text/javascript"
									}
								}
							],
							"request": {
								"auth": {
									"type": "basic",
									"basic": [
										{
											"key": "password",
											"value": "123",
											"type": "string"
										},
										{
											"key": "username",
											"value": "user1",
											"type": "string"
										}
									]
								},
								"method": "DELETE",
								"header": [],
								"url": {
									"raw": "{{baseUrl}}{{comments}}/{{commentID}}",
									"host": [
										"{{baseUrl}}{{comments}}"
									],
									"path": [
										"{{commentID}}"
									]
								},
								"description": "DELETE request for deleting a comment"
							},
							"response": []
						},
						{
							"name": "Confirm comment is deleted",
							"event": [
								{
									"listen": "test",
									"script": {
										"id": "65299619-f6b5-4096-b03a-b8e3ee0a4c77",
										"exec": [
											"let jsonData = pm.response.json();",
											"",
											"pm.test(\"Status code is 200\", function () {",
											"    pm.response.to.have.status(200);",
											"});",
											"",
											"pm.test(\"Correct post ID is received\", function () {",
											"    pm.expect(jsonData[0].post.id).to.eql(pm.globals.get(\"postID\"));",
											"});",
											"",
											"pm.test(\"Confirm comment is deleted successful\", function () {",
											"    pm.expect(pm.response.text()).to.not.include(pm.globals.get(\"content\"));",
											"});",
											"",
											""
										],
										"type": "text/javascript"
									}
								}
							],
							"request": {
								"auth": {
									"type": "basic",
									"basic": [
										{
											"key": "password",
											"value": "123",
											"type": "string"
										},
										{
											"key": "username",
											"value": "user1",
											"type": "string"
										}
									]
								},
								"method": "GET",
								"header": [
									{
										"key": "Content-Type",
										"name": "Content-Type",
										"type": "text",
										"value": "application/json"
									}
								],
								"url": {
									"raw": "{{baseUrl}}{{comments}}/post/{{postID}}",
									"host": [
										"{{baseUrl}}{{comments}}"
									],
									"path": [
										"post",
										"{{postID}}"
									]
								},
								"description": "GET request to confirm that the comment DEL request in previous request was successful"
							},
							"response": []
						}
					],
					"protocolProfileBehavior": {},
					"_postman_isSubFolder": true
				},
				{
					"name": "Edit comment",
					"item": [
						{
							"name": "Get list of posts and set a post id",
							"event": [
								{
									"listen": "test",
									"script": {
										"id": "41466f17-88e0-4bd4-b8d6-abda8bdeecbe",
										"exec": [
											"let jsonData = pm.response.json();",
											"",
											"pm.test(\"Status code is 200\", function () {",
											"    pm.response.to.have.status(200);",
											"});",
											"",
											"pm.globals.set(\"postID\", jsonData[0].id);"
										],
										"type": "text/javascript"
									}
								}
							],
							"request": {
								"auth": {
									"type": "basic",
									"basic": [
										{
											"key": "password",
											"value": "123",
											"type": "string"
										},
										{
											"key": "username",
											"value": "user1",
											"type": "string"
										}
									]
								},
								"method": "GET",
								"header": [],
								"url": {
									"raw": "{{baseUrl}}{{posts}}",
									"host": [
										"{{baseUrl}}{{posts}}"
									]
								},
								"description": "In order to create a comment, you need first to get a post's id."
							},
							"response": []
						},
						{
							"name": "Get list of comments and set comment id",
							"event": [
								{
									"listen": "test",
									"script": {
										"id": "8e773577-af53-40e6-89ba-5ccf787fd650",
										"exec": [
											"let jsonData = pm.response.json();",
											"",
											"pm.test(\"Status code is 200\", function () {",
											"    pm.response.to.have.status(200);",
											"});",
											"",
											"pm.test(\"Correct post ID is received\", function () {",
											"    pm.expect(jsonData[0].post.id).to.eql(pm.globals.get(\"postID\"));",
											"});",
											"",
											"pm.globals.set(\"commentID\", jsonData[0].id);",
											"pm.globals.set(\"commentContent\", jsonData[0].content + \"UPDATED\");",
											"pm.globals.set(\"userID\", jsonData[0].user.id);"
										],
										"type": "text/javascript"
									}
								}
							],
							"request": {
								"auth": {
									"type": "basic",
									"basic": [
										{
											"key": "password",
											"value": "123",
											"type": "string"
										},
										{
											"key": "username",
											"value": "user1",
											"type": "string"
										}
									]
								},
								"method": "GET",
								"header": [
									{
										"key": "Content-Type",
										"name": "Content-Type",
										"type": "text",
										"value": "application/json"
									}
								],
								"url": {
									"raw": "{{baseUrl}}{{comments}}/post/{{postID}}",
									"host": [
										"{{baseUrl}}{{comments}}"
									],
									"path": [
										"post",
										"{{postID}}"
									]
								},
								"description": "GET request used to set comment ID needed for the following request"
							},
							"response": []
						},
						{
							"name": "Edit comment",
							"event": [
								{
									"listen": "test",
									"script": {
										"id": "52be8c13-93c2-4bda-b3f7-26970cbcb9d3",
										"exec": [
											"pm.test(\"Status code is 200\", function () {",
											"    pm.response.to.have.status(200);",
											"});"
										],
										"type": "text/javascript"
									}
								}
							],
							"request": {
								"auth": {
									"type": "basic",
									"basic": [
										{
											"key": "password",
											"value": "123",
											"type": "string"
										},
										{
											"key": "username",
											"value": "user1",
											"type": "string"
										}
									]
								},
								"method": "PUT",
								"header": [
									{
										"key": "Content-Type",
										"name": "Content-Type",
										"value": "application/json",
										"type": "text"
									}
								],
								"body": {
									"mode": "raw",
									"raw": "{\r\n  \"content\": \"{{commentContent}}\",\r\n  \"enabled\": true,\r\n  \"id\": \"{{commentID}}\",\r\n  \"post\": {\r\n    \"enabled\": true,\r\n    \"id\": \"{{postID}}\",\r\n    \"user\": {\r\n      \"id\": \"{{userID}}\"\r\n    },\r\n    \"visible\": true\r\n  }\r\n}"
								},
								"url": {
									"raw": "{{baseUrl}}{{comments}}/{{commentID}}",
									"host": [
										"{{baseUrl}}{{comments}}"
									],
									"path": [
										"{{commentID}}"
									]
								},
								"description": "PUT request to update comment content"
							},
							"response": []
						},
						{
							"name": "Confirm comment is updated",
							"event": [
								{
									"listen": "test",
									"script": {
										"id": "8e773577-af53-40e6-89ba-5ccf787fd650",
										"exec": [
											"let jsonData = pm.response.json();",
											"",
											"pm.test(\"Status code is 200\", function () {",
											"    pm.response.to.have.status(200);",
											"});",
											"",
											"pm.test(\"Confirm comment is updated successful\", function () {",
											"    pm.expect(pm.response.text()).to.not.include(pm.globals.get(\"commentID\") + \"UPDATED\");",
											"});",
											"",
											"pm.globals.unset(\"commentContent\");",
											"pm.globals.unset(\"postID\");",
											"pm.globals.unset(\"userID\");"
										],
										"type": "text/javascript"
									}
								}
							],
							"request": {
								"auth": {
									"type": "basic",
									"basic": [
										{
											"key": "password",
											"value": "123",
											"type": "string"
										},
										{
											"key": "username",
											"value": "user1",
											"type": "string"
										}
									]
								},
								"method": "GET",
								"header": [
									{
										"key": "Content-Type",
										"name": "Content-Type",
										"type": "text",
										"value": "application/json"
									}
								],
								"url": {
									"raw": "{{baseUrl}}{{comments}}/{{commentID}}",
									"host": [
										"{{baseUrl}}{{comments}}"
									],
									"path": [
										"{{commentID}}"
									]
								},
								"description": "GET request to confirm that the comment was edited successfully"
							},
							"response": []
						}
					],
					"event": [
						{
							"listen": "prerequest",
							"script": {
								"id": "dc7e5c58-aecc-47f3-bb49-658354f904f3",
								"type": "text/javascript",
								"exec": [
									""
								]
							}
						},
						{
							"listen": "test",
							"script": {
								"id": "99aaf206-67eb-4f7e-8a68-e17dca696c90",
								"type": "text/javascript",
								"exec": [
									""
								]
							}
						}
					],
					"protocolProfileBehavior": {},
					"_postman_isSubFolder": true
				}
			],
			"protocolProfileBehavior": {}
		}
	],
	"event": [
		{
			"listen": "prerequest",
			"script": {
				"id": "d2036bf7-f4a4-42fb-9286-03944b12684e",
				"type": "text/javascript",
				"exec": [
					""
				]
			}
		},
		{
			"listen": "test",
			"script": {
				"id": "adb282de-e0df-4e2d-ad9b-1ccd75f60182",
				"type": "text/javascript",
				"exec": [
					""
				]
			}
		}
	],
	"protocolProfileBehavior": {}
}